[
    {   "id": "",
        "name": "dress",
        "price": 1256,
        "image": "./img/black-dress.jpeg",
        "article": 12301,
        "color": "black"
    },
    {
        "id": "",
        "name": "blouse",
        "price": 1349,
        "image": "./img/blouse.jpeg",
        "article": 12302,
        "color": "white"
    },
    {
        "id": "",
        "name": "blue-dress",
        "price": 2345,
        "image": "./img/blue-dress.jpeg",
        "article": 12303,
        "color": "blue"
    },
    {
        "id": "",
        "name": "coat",
        "price": 1000,
        "image": "./img/coat.jpeg",
        "article": 12304,
        "color": "brown"
    },
    {
        "id": "",
        "name": "overalls.jpeg",
        "price": 990,
        "image": "./img/overalls.jpeg",
        "article": 123004,
        "color": "blue"
    },
    {
        "id": "",
        "name": "pants",
        "price": 1190,
        "image": "./img/pants.jpeg",
        "article": 12306,
        "color": "grey"
    },
    {
        "id": "",
        "name": "red-dress",
        "price": 1490,
        "image": "./img/red-dress.jpeg",
        "article": 12307,
        "color": "red"
    },
    {
        "id": "",
        "name": "skirt",
        "price": 650,
        "image": "./img/skirt.jpeg",
        "article": 12308,
        "color": "pink"
    },
    {
        "id": "",
        "name": "suite",
        "price": 1290,
        "image": "./img/suite.jpeg",
        "article": 12309,
        "color": "beige-pink"
    },
    {
        "id": "",
        "name": "suite2",
        "price": 1490,
        "image": "./img/suite2.jpeg",
        "article": 123010,
        "color": "beige"
    }
    
]